Inference for numerical data
…
The data

In 2004, the state of North Carolina released a large data set containing information on births recorded in this state. This data set is useful to researchers studying the relation between habits and practices of expectant mothers and the birth of their children. We will work with a random sample of observations from this data set.

Load the nc data set into our workspace.

data(nc)
tbl_df(nc)

## # A tibble: 1,000 x 13
##     fage  mage mature weeks premie visits marital gained weight
##    <int> <int> <fct>  <int> <fct>   <int> <fct>    <int>  <dbl>
##  1    NA    13 young    39 full      10 married     38   7.63
##  2    NA    14 young    42 full      15 married     20   7.88
##  3    19    15 young    37 full      11 married     38   6.63
##  4    21    15 young    41 full       6 married     34   8   
##  5    NA    15 young    39 full       9 married     27   6.38
##  6    NA    15 young    38 full      19 married     22   5.38
##  7    18    15 young    37 full      12 married     76   8.44
##  8    17    15 young    35 premie      5 married     15   4.69
##  9    NA    16 young    38 full       9 married     NA   8.81
## 10    20    16 young    37 full      13 married     52   6.94
## #  with 990 more rows, and 4 more variables: lowbirthweight <fct>,
## #   gender <fct>, habit <fct>, whitemom <fct>
…
